module gitlab.com/navenest/minio-webhook-util

go 1.22.0

require (
	github.com/gin-gonic/gin v1.9.1
	gitlab.com/navenest/golang-library v0.1.1
	go.opentelemetry.io/contrib/instrumentation/github.com/gin-gonic/gin/otelgin v0.51.0
	go.uber.org/zap v1.27.0
)

require (
	github.com/bytedance/sonic v1.9.1 // indirect
	github.com/cenkalti/backoff/v4 v4.2.1 // indirect
	github.com/chenzhuoyu/base64x v0.0.0-20221115062448-fe3a3abad311 // indirect
	github.com/gabriel-vasile/mimetype v1.4.2 // indirect
	github.com/gin-contrib/sse v0.1.0 // indirect
	github.com/go-logr/logr v1.4.1 // indirect
	github.com/go-logr/stdr v1.2.2 // indirect
	github.com/go-playground/locales v0.14.1 // indirect
	github.com/go-playground/universal-translator v0.18.1 // indirect
	github.com/go-playground/validator/v10 v10.14.0 // indirect
	github.com/goccy/go-json v0.10.2 // indirect
	github.com/golang/protobuf v1.5.4 // indirect
	github.com/grpc-ecosystem/grpc-gateway/v2 v2.19.1 // indirect
	github.com/json-iterator/go v1.1.12 // indirect
	github.com/klauspost/cpuid/v2 v2.2.4 // indirect
	github.com/leodido/go-urn v1.2.4 // indirect
	github.com/mattn/go-isatty v0.0.19 // indirect
	github.com/modern-go/concurrent v0.0.0-20180306012644-bacd9c7ef1dd // indirect
	github.com/modern-go/reflect2 v1.0.2 // indirect
	github.com/pelletier/go-toml/v2 v2.0.8 // indirect
	github.com/twitchyliquid64/golang-asm v0.15.1 // indirect
	github.com/ugorji/go/codec v1.2.11 // indirect
	go.opentelemetry.io/otel v1.26.0 // indirect
	go.opentelemetry.io/otel/exporters/otlp/otlpmetric/otlpmetricgrpc v1.23.1 // indirect
	go.opentelemetry.io/otel/exporters/otlp/otlpmetric/otlpmetrichttp v1.23.1 // indirect
	go.opentelemetry.io/otel/exporters/otlp/otlptrace v1.26.0 // indirect
	go.opentelemetry.io/otel/exporters/otlp/otlptrace/otlptracegrpc v1.23.1 // indirect
	go.opentelemetry.io/otel/exporters/otlp/otlptrace/otlptracehttp v1.23.1 // indirect
	go.opentelemetry.io/otel/metric v1.26.0 // indirect
	go.opentelemetry.io/otel/sdk v1.26.0 // indirect
	go.opentelemetry.io/otel/sdk/metric v1.23.1 // indirect
	go.opentelemetry.io/otel/trace v1.26.0 // indirect
	go.opentelemetry.io/proto/otlp v1.2.0 // indirect
	go.uber.org/multierr v1.10.0 // indirect
	golang.org/x/arch v0.3.0 // indirect
	golang.org/x/crypto v0.22.0 // indirect
	golang.org/x/net v0.24.0 // indirect
	golang.org/x/sys v0.19.0 // indirect
	golang.org/x/text v0.14.0 // indirect
	google.golang.org/genproto/googleapis/api v0.0.0-20240227224415-6ceb2ff114de // indirect
	google.golang.org/genproto/googleapis/rpc v0.0.0-20240227224415-6ceb2ff114de // indirect
	google.golang.org/grpc v1.63.0 // indirect
	google.golang.org/protobuf v1.33.0 // indirect
	gopkg.in/yaml.v3 v3.0.1 // indirect
)
